INSPECTION on 2019 MAY 31
Row is empty! No bottles to inspect.

STOCK: Attempting to stock new bottle: Lisinopril. Pills = 45. EXP: 2020 DEC 15
Successful stock!

INSPECTION on 2019 SEP 18
The check date 2019 SEP 18 is the same day or after the initial date 2020 DEC 15
Bottle in front of Lisinopril is expired
Bottle in Front Removed
Row is now empty! No more bottles to inspect.

SCRIPT! Patient brought in a prescription on 2020 NOV 15 for 30 Lisinopril
The row is empty, and the medication cannot be dispersed

SCRIPT! Patient brought in a prescription on 2020 NOV 16 for 20 Lisinopril
The row is empty, and the medication cannot be dispersed

SCRIPT! Patient brought in a prescription on 2020 NOV 16 for 30 Lisinopril
The row is empty, and the medication cannot be dispersed

STOCK: Attempting to stock new bottle: Lisinopril. Pills = 45. EXP: 2020 DEC 31
Successful stock!

STOCK: Attempting to stock new bottle: Azithromycin. Pills = 45. EXP: 2020 DEC 31
This row is not for Azithromycin. Cannot be stocked.

INSPECTION on 2020 MAY 1
The check date 2020 MAY 1 is the same day or after the initial date 2020 DEC 31
Bottle in front of Lisinopril is expired
Bottle in Front Removed
Row is now empty! No more bottles to inspect.

STOCK: Attempting to stock new bottle: Lisinopril. Pills = 45. EXP: 2021 JAN 1
Successful stock!

INSPECTION on 2020 DEC 30
The check date 2020 DEC 30 is the same day or after the initial date 2021 JAN 1
Bottle in front of Lisinopril is expired
Bottle in Front Removed
Row is now empty! No more bottles to inspect.

STOCK: Attempting to stock new bottle: Lisinopril. Pills = 45. EXP: 2021 JAN 31
Successful stock!

STOCK: Attempting to stock new bottle: Lisinopril. Pills = 15. EXP: 2021 JAN 31
Successful stock!

SCRIPT! Patient brought in a prescription on 2021 JAN 1 for 65 Lisinopril
Front bottle Lisinopril is expired as of 2021 JAN 31. Removed from row!
Front bottle Lisinopril is expired as of 2021 JAN 31. Removed from row!
The pharmacy is out of Lisinopril and the patient still needs 65

INSPECTION on 2021 JAN 15
Row is empty! No bottles to inspect.

INSPECTION on 2021 FEB 1
Row is empty! No bottles to inspect.

STOCK: Attempting to stock new bottle: Lisinopril. Pills = 45. EXP: 2022 JAN 31
Successful stock!

SCRIPT! Patient brought in a prescription on 2021 FEB 2 for 30 Lisinopril
Front bottle Lisinopril is expired as of 2022 JAN 31. Removed from row!
The pharmacy is out of Lisinopril and the patient still needs 30

INSPECTION on 2021 FEB 3
Row is empty! No bottles to inspect.

THE END!!!
